name="Agerteia"
path="mod/Agerteia"
tags={"Alternative History""Total Conversion""Fantasy"}

supported_version="1.30.*"

replace_path="common/bookmarks"
replace_path="common/province_names"
replace_path="common/government_names"
replace_path="common/disasters"
replace_path="common/rebel_types"
replace_path="common/countries"
replace_path="common/mercenary_companies"

replace_path="events"
replace_path="missions"
replace_path="decisions"
replace_path="history/diplomacy"
replace_path="history/countries"
replace_path="history/wars"
replace_path="history/provinces"
replace_path="history/advisors"